simulation/qsim/main.msim.vcd
$comment
	File created using the following command:
		vcd file main.msim.vcd -direction
$end
$date
	Thu Dec 29 00:57:28 2022
$end
$version
	ModelSim Version 10.1d
$end
$timescale
	1ps
$end
$scope module main_vlg_vec_tst $end
$var reg 3 ! BUT [2:0] $end
$var reg 1 " clk $end
$var reg 1 # reset $end
$var reg 4 $ SW [3:0] $end
$var wire 1 % LED0 [7] $end
$var wire 1 & LED0 [6] $end
$var wire 1 ' LED0 [5] $end
$var wire 1 ( LED0 [4] $end
$var wire 1 ) LED0 [3] $end
$var wire 1 * LED0 [2] $end
$var wire 1 + LED0 [1] $end
$var wire 1 , LED0 [0] $end
$var wire 1 - LED1 [7] $end
$var wire 1 . LED1 [6] $end
$var wire 1 / LED1 [5] $end
$var wire 1 0 LED1 [4] $end
$var wire 1 1 LED1 [3] $end
$var wire 1 2 LED1 [2] $end
$var wire 1 3 LED1 [1] $end
$var wire 1 4 LED1 [0] $end
$var wire 1 5 LED2 [7] $end
$var wire 1 6 LED2 [6] $end
$var wire 1 7 LED2 [5] $end
$var wire 1 8 LED2 [4] $end
$var wire 1 9 LED2 [3] $end
$var wire 1 : LED2 [2] $end
$var wire 1 ; LED2 [1] $end
$var wire 1 < LED2 [0] $end
$var wire 1 = LED3 [7] $end
$var wire 1 > LED3 [6] $end
$var wire 1 ? LED3 [5] $end
$var wire 1 @ LED3 [4] $end
$var wire 1 A LED3 [3] $end
$var wire 1 B LED3 [2] $end
$var wire 1 C LED3 [1] $end
$var wire 1 D LED3 [0] $end
$var wire 1 E sampler $end
$scope module i1 $end
$var wire 1 F gnd $end
$var wire 1 G vcc $end
$var wire 1 H unknown $end
$var tri1 1 I devclrn $end
$var tri1 1 J devpor $end
$var tri1 1 K devoe $end
$var wire 1 L SW[1]~input_o $end
$var wire 1 M SW[2]~input_o $end
$var wire 1 N SW[3]~input_o $end
$var wire 1 O BUT[2]~input_o $end
$var wire 1 P LED0[0]~output_o $end
$var wire 1 Q LED0[1]~output_o $end
$var wire 1 R LED0[2]~output_o $end
$var wire 1 S LED0[3]~output_o $end
$var wire 1 T LED0[4]~output_o $end
$var wire 1 U LED0[5]~output_o $end
$var wire 1 V LED0[6]~output_o $end
$var wire 1 W LED0[7]~output_o $end
$var wire 1 X LED1[0]~output_o $end
$var wire 1 Y LED1[1]~output_o $end
$var wire 1 Z LED1[2]~output_o $end
$var wire 1 [ LED1[3]~output_o $end
$var wire 1 \ LED1[4]~output_o $end
$var wire 1 ] LED1[5]~output_o $end
$var wire 1 ^ LED1[6]~output_o $end
$var wire 1 _ LED1[7]~output_o $end
$var wire 1 ` LED2[0]~output_o $end
$var wire 1 a LED2[1]~output_o $end
$var wire 1 b LED2[2]~output_o $end
$var wire 1 c LED2[3]~output_o $end
$var wire 1 d LED2[4]~output_o $end
$var wire 1 e LED2[5]~output_o $end
$var wire 1 f LED2[6]~output_o $end
$var wire 1 g LED2[7]~output_o $end
$var wire 1 h LED3[0]~output_o $end
$var wire 1 i LED3[1]~output_o $end
$var wire 1 j LED3[2]~output_o $end
$var wire 1 k LED3[3]~output_o $end
$var wire 1 l LED3[4]~output_o $end
$var wire 1 m LED3[5]~output_o $end
$var wire 1 n LED3[6]~output_o $end
$var wire 1 o LED3[7]~output_o $end
$var wire 1 p BUT[0]~input_o $end
$var wire 1 q clk~input_o $end
$var wire 1 r SW[0]~input_o $end
$var wire 1 s CLOCK_0|h[0]~0_combout $end
$var wire 1 t reset~input_o $end
$var wire 1 u BUT[1]~input_o $end
$var wire 1 v CLOCK_0|Equal0~6_combout $end
$var wire 1 w CLOCK_0|m[0]~5_combout $end
$var wire 1 x CLOCK_0|Add1~5_combout $end
$var wire 1 y CLOCK_0|m[1]~4_combout $end
$var wire 1 z CLOCK_0|Equal0~4_combout $end
$var wire 1 { CLOCK_0|tm1~3_combout $end
$var wire 1 | CLOCK_0|m[2]~3_combout $end
$var wire 1 } CLOCK_0|tm1~2_combout $end
$var wire 1 ~ CLOCK_0|m[3]~2_combout $end
$var wire 1 !! CLOCK_0|Add1~4_combout $end
$var wire 1 "! CLOCK_0|tm1~1_combout $end
$var wire 1 #! CLOCK_0|m[4]~1_combout $end
$var wire 1 $! CLOCK_0|tm1~0_combout $end
$var wire 1 %! CLOCK_0|m[5]~0_combout $end
$var wire 1 &! CLOCK_0|Equal0~5_combout $end
$var wire 1 '! CLOCK_0|th1~8_combout $end
$var wire 1 (! CLOCK_0|Add0~3_combout $end
$var wire 1 )! CLOCK_0|th1[1]~3_combout $end
$var wire 1 *! CLOCK_0|Add0~2_combout $end
$var wire 1 +! CLOCK_0|th1[2]~2_combout $end
$var wire 1 ,! CLOCK_0|Equal1~0_combout $end
$var wire 1 -! CLOCK_0|th1~7_combout $end
$var wire 1 .! CLOCK_0|th1[3]~1_combout $end
$var wire 1 /! CLOCK_0|th1~6_combout $end
$var wire 1 0! CLOCK_0|th1[4]~0_combout $end
$var wire 1 1! CLOCK_0|todig1|Div0|auto_generated|divider|divider|add_sub_3_result_int[1]~1 $end
$var wire 1 2! CLOCK_0|todig1|Div0|auto_generated|divider|divider|add_sub_3_result_int[2]~3 $end
$var wire 1 3! CLOCK_0|todig1|Div0|auto_generated|divider|divider|add_sub_3_result_int[3]~5 $end
$var wire 1 4! CLOCK_0|todig1|Div0|auto_generated|divider|divider|add_sub_3_result_int[4]~6_combout $end
$var wire 1 5! CLOCK_0|todig1|Div0|auto_generated|divider|divider|StageOut[18]~0_combout $end
$var wire 1 6! CLOCK_0|todig1|Div0|auto_generated|divider|divider|add_sub_3_result_int[3]~4_combout $end
$var wire 1 7! CLOCK_0|todig1|Div0|auto_generated|divider|divider|StageOut[18]~1_combout $end
$var wire 1 8! CLOCK_0|todig1|Div0|auto_generated|divider|divider|StageOut[17]~2_combout $end
$var wire 1 9! CLOCK_0|todig1|Div0|auto_generated|divider|divider|add_sub_3_result_int[2]~2_combout $end
$var wire 1 :! CLOCK_0|todig1|Div0|auto_generated|divider|divider|StageOut[17]~3_combout $end
$var wire 1 ;! CLOCK_0|todig1|Div0|auto_generated|divider|divider|StageOut[16]~4_combout $end
$var wire 1 <! CLOCK_0|todig1|Div0|auto_generated|divider|divider|add_sub_3_result_int[1]~0_combout $end
$var wire 1 =! CLOCK_0|todig1|Div0|auto_generated|divider|divider|StageOut[16]~5_combout $end
$var wire 1 >! CLOCK_0|todig1|Div0|auto_generated|divider|divider|StageOut[15]~6_combout $end
$var wire 1 ?! CLOCK_0|todig1|Div0|auto_generated|divider|divider|StageOut[15]~7_combout $end
$var wire 1 @! CLOCK_0|todig1|Div0|auto_generated|divider|divider|add_sub_4_result_int[1]~1_cout $end
$var wire 1 A! CLOCK_0|todig1|Div0|auto_generated|divider|divider|add_sub_4_result_int[2]~3_cout $end
$var wire 1 B! CLOCK_0|todig1|Div0|auto_generated|divider|divider|add_sub_4_result_int[3]~5_cout $end
$var wire 1 C! CLOCK_0|todig1|Div0|auto_generated|divider|divider|add_sub_4_result_int[4]~7_cout $end
$var wire 1 D! CLOCK_0|todig1|Div0|auto_generated|divider|divider|add_sub_4_result_int[5]~8_combout $end
$var wire 1 E! SEVEN_SEG_0|Equal9~0_combout $end
$var wire 1 F! SEVEN_SEG_0|LED[3]~0_combout $end
$var wire 1 G! SEVEN_SEG_0|LED[7]~1_combout $end
$var wire 1 H! SEVEN_SEG_0|LED[5]~2_combout $end
$var wire 1 I! CLOCK_0|todig1|Mod0|auto_generated|divider|divider|add_sub_3_result_int[1]~1 $end
$var wire 1 J! CLOCK_0|todig1|Mod0|auto_generated|divider|divider|add_sub_3_result_int[2]~3 $end
$var wire 1 K! CLOCK_0|todig1|Mod0|auto_generated|divider|divider|add_sub_3_result_int[3]~5 $end
$var wire 1 L! CLOCK_0|todig1|Mod0|auto_generated|divider|divider|add_sub_3_result_int[4]~6_combout $end
$var wire 1 M! CLOCK_0|todig1|Mod0|auto_generated|divider|divider|StageOut[17]~0_combout $end
$var wire 1 N! CLOCK_0|todig1|Mod0|auto_generated|divider|divider|add_sub_3_result_int[2]~2_combout $end
$var wire 1 O! CLOCK_0|todig1|Mod0|auto_generated|divider|divider|StageOut[17]~1_combout $end
$var wire 1 P! CLOCK_0|todig1|Mod0|auto_generated|divider|divider|StageOut[16]~2_combout $end
$var wire 1 Q! CLOCK_0|todig1|Mod0|auto_generated|divider|divider|add_sub_3_result_int[1]~0_combout $end
$var wire 1 R! CLOCK_0|todig1|Mod0|auto_generated|divider|divider|StageOut[16]~3_combout $end
$var wire 1 S! CLOCK_0|todig1|Mod0|auto_generated|divider|divider|StageOut[15]~4_combout $end
$var wire 1 T! CLOCK_0|todig1|Mod0|auto_generated|divider|divider|StageOut[15]~5_combout $end
$var wire 1 U! CLOCK_0|todig1|Mod0|auto_generated|divider|divider|add_sub_4_result_int[1]~1 $end
$var wire 1 V! CLOCK_0|todig1|Mod0|auto_generated|divider|divider|add_sub_4_result_int[2]~3 $end
$var wire 1 W! CLOCK_0|todig1|Mod0|auto_generated|divider|divider|add_sub_4_result_int[3]~4_combout $end
$var wire 1 X! CLOCK_0|todig1|Mod0|auto_generated|divider|divider|StageOut[18]~6_combout $end
$var wire 1 Y! CLOCK_0|todig1|Mod0|auto_generated|divider|divider|add_sub_3_result_int[3]~4_combout $end
$var wire 1 Z! CLOCK_0|todig1|Mod0|auto_generated|divider|divider|StageOut[18]~7_combout $end
$var wire 1 [! CLOCK_0|todig1|Mod0|auto_generated|divider|divider|add_sub_4_result_int[3]~5 $end
$var wire 1 \! CLOCK_0|todig1|Mod0|auto_generated|divider|divider|add_sub_4_result_int[4]~7_cout $end
$var wire 1 ]! CLOCK_0|todig1|Mod0|auto_generated|divider|divider|add_sub_4_result_int[5]~8_combout $end
$var wire 1 ^! CLOCK_0|todig1|Mod0|auto_generated|divider|divider|StageOut[23]~8_combout $end
$var wire 1 _! CLOCK_0|todig1|Mod0|auto_generated|divider|divider|add_sub_4_result_int[1]~0_combout $end
$var wire 1 `! CLOCK_0|todig1|Mod0|auto_generated|divider|divider|StageOut[21]~9_combout $end
$var wire 1 a! CLOCK_0|todig1|Mod0|auto_generated|divider|divider|add_sub_4_result_int[2]~2_combout $end
$var wire 1 b! CLOCK_0|todig1|Mod0|auto_generated|divider|divider|StageOut[22]~10_combout $end
$var wire 1 c! SEVEN_SEG_1|LED[1]~0_combout $end
$var wire 1 d! SEVEN_SEG_1|LED[2]~1_combout $end
$var wire 1 e! SEVEN_SEG_1|LED[3]~2_combout $end
$var wire 1 f! SEVEN_SEG_1|LED[4]~3_combout $end
$var wire 1 g! SEVEN_SEG_1|LED[5]~4_combout $end
$var wire 1 h! SEVEN_SEG_1|LED[6]~5_combout $end
$var wire 1 i! SEVEN_SEG_1|LED[7]~6_combout $end
$var wire 1 j! CLOCK_0|todig1|Div1|auto_generated|divider|divider|add_sub_3_result_int[1]~1 $end
$var wire 1 k! CLOCK_0|todig1|Div1|auto_generated|divider|divider|add_sub_3_result_int[2]~3 $end
$var wire 1 l! CLOCK_0|todig1|Div1|auto_generated|divider|divider|add_sub_3_result_int[3]~5 $end
$var wire 1 m! CLOCK_0|todig1|Div1|auto_generated|divider|divider|add_sub_3_result_int[4]~6_combout $end
$var wire 1 n! CLOCK_0|todig1|Div1|auto_generated|divider|divider|StageOut[18]~26_combout $end
$var wire 1 o! CLOCK_0|todig1|Div1|auto_generated|divider|divider|add_sub_3_result_int[3]~4_combout $end
$var wire 1 p! CLOCK_0|todig1|Div1|auto_generated|divider|divider|StageOut[18]~20_combout $end
$var wire 1 q! CLOCK_0|todig1|Div1|auto_generated|divider|divider|StageOut[17]~27_combout $end
$var wire 1 r! CLOCK_0|todig1|Div1|auto_generated|divider|divider|add_sub_3_result_int[2]~2_combout $end
$var wire 1 s! CLOCK_0|todig1|Div1|auto_generated|divider|divider|StageOut[17]~21_combout $end
$var wire 1 t! CLOCK_0|todig1|Div1|auto_generated|divider|divider|StageOut[16]~28_combout $end
$var wire 1 u! CLOCK_0|todig1|Div1|auto_generated|divider|divider|add_sub_3_result_int[1]~0_combout $end
$var wire 1 v! CLOCK_0|todig1|Div1|auto_generated|divider|divider|StageOut[16]~22_combout $end
$var wire 1 w! CLOCK_0|todig1|Div1|auto_generated|divider|divider|StageOut[15]~29_combout $end
$var wire 1 x! CLOCK_0|todig1|Div1|auto_generated|divider|divider|StageOut[15]~30_combout $end
$var wire 1 y! CLOCK_0|todig1|Div1|auto_generated|divider|divider|add_sub_4_result_int[1]~1 $end
$var wire 1 z! CLOCK_0|todig1|Div1|auto_generated|divider|divider|add_sub_4_result_int[2]~3 $end
$var wire 1 {! CLOCK_0|todig1|Div1|auto_generated|divider|divider|add_sub_4_result_int[3]~5 $end
$var wire 1 |! CLOCK_0|todig1|Div1|auto_generated|divider|divider|add_sub_4_result_int[4]~7_cout $end
$var wire 1 }! CLOCK_0|todig1|Div1|auto_generated|divider|divider|add_sub_4_result_int[5]~8_combout $end
$var wire 1 ~! CLOCK_0|todig1|Div1|auto_generated|divider|divider|StageOut[23]~31_combout $end
$var wire 1 !" CLOCK_0|todig1|Div1|auto_generated|divider|divider|add_sub_4_result_int[3]~4_combout $end
$var wire 1 "" CLOCK_0|todig1|Div1|auto_generated|divider|divider|StageOut[23]~23_combout $end
$var wire 1 #" CLOCK_0|todig1|Div1|auto_generated|divider|divider|StageOut[22]~32_combout $end
$var wire 1 $" CLOCK_0|todig1|Div1|auto_generated|divider|divider|add_sub_4_result_int[2]~2_combout $end
$var wire 1 %" CLOCK_0|todig1|Div1|auto_generated|divider|divider|StageOut[22]~24_combout $end
$var wire 1 &" CLOCK_0|todig1|Div1|auto_generated|divider|divider|StageOut[21]~33_combout $end
$var wire 1 '" CLOCK_0|todig1|Div1|auto_generated|divider|divider|add_sub_4_result_int[1]~0_combout $end
$var wire 1 (" CLOCK_0|todig1|Div1|auto_generated|divider|divider|StageOut[21]~25_combout $end
$var wire 1 )" CLOCK_0|todig1|Div1|auto_generated|divider|divider|StageOut[20]~34_combout $end
$var wire 1 *" CLOCK_0|todig1|Div1|auto_generated|divider|divider|StageOut[20]~35_combout $end
$var wire 1 +" CLOCK_0|todig1|Div1|auto_generated|divider|divider|add_sub_5_result_int[1]~1_cout $end
$var wire 1 ," CLOCK_0|todig1|Div1|auto_generated|divider|divider|add_sub_5_result_int[2]~3_cout $end
$var wire 1 -" CLOCK_0|todig1|Div1|auto_generated|divider|divider|add_sub_5_result_int[3]~5_cout $end
$var wire 1 ." CLOCK_0|todig1|Div1|auto_generated|divider|divider|add_sub_5_result_int[4]~7_cout $end
$var wire 1 /" CLOCK_0|todig1|Div1|auto_generated|divider|divider|add_sub_5_result_int[5]~8_combout $end
$var wire 1 0" SEVEN_SEG_2|LED[1]~2_combout $end
$var wire 1 1" SEVEN_SEG_2|LED[2]~3_combout $end
$var wire 1 2" SEVEN_SEG_2|LED[3]~4_combout $end
$var wire 1 3" SEVEN_SEG_2|LED[3]~5_combout $end
$var wire 1 4" SEVEN_SEG_2|LED[4]~6_combout $end
$var wire 1 5" SEVEN_SEG_2|LED[5]~7_combout $end
$var wire 1 6" SEVEN_SEG_2|LED[6]~8_combout $end
$var wire 1 7" SEVEN_SEG_2|LED[6]~10_combout $end
$var wire 1 8" SEVEN_SEG_2|LED[7]~9_combout $end
$var wire 1 9" CLOCK_0|todig1|Mod1|auto_generated|divider|divider|add_sub_3_result_int[1]~0_combout $end
$var wire 1 :" CLOCK_0|todig1|Mod1|auto_generated|divider|divider|add_sub_3_result_int[1]~1 $end
$var wire 1 ;" CLOCK_0|todig1|Mod1|auto_generated|divider|divider|add_sub_3_result_int[2]~3 $end
$var wire 1 <" CLOCK_0|todig1|Mod1|auto_generated|divider|divider|add_sub_3_result_int[3]~5 $end
$var wire 1 =" CLOCK_0|todig1|Mod1|auto_generated|divider|divider|add_sub_3_result_int[4]~6_combout $end
$var wire 1 >" CLOCK_0|todig1|Mod1|auto_generated|divider|divider|StageOut[21]~32_combout $end
$var wire 1 ?" CLOCK_0|todig1|Mod1|auto_generated|divider|divider|add_sub_3_result_int[3]~4_combout $end
$var wire 1 @" CLOCK_0|todig1|Mod1|auto_generated|divider|divider|StageOut[21]~22_combout $end
$var wire 1 A" CLOCK_0|todig1|Mod1|auto_generated|divider|divider|StageOut[20]~33_combout $end
$var wire 1 B" CLOCK_0|todig1|Mod1|auto_generated|divider|divider|add_sub_3_result_int[2]~2_combout $end
$var wire 1 C" CLOCK_0|todig1|Mod1|auto_generated|divider|divider|StageOut[20]~23_combout $end
$var wire 1 D" CLOCK_0|todig1|Mod1|auto_generated|divider|divider|StageOut[19]~34_combout $end
$var wire 1 E" CLOCK_0|todig1|Mod1|auto_generated|divider|divider|StageOut[19]~24_combout $end
$var wire 1 F" CLOCK_0|todig1|Mod1|auto_generated|divider|divider|StageOut[18]~35_combout $end
$var wire 1 G" CLOCK_0|todig1|Mod1|auto_generated|divider|divider|StageOut[18]~36_combout $end
$var wire 1 H" CLOCK_0|todig1|Mod1|auto_generated|divider|divider|add_sub_4_result_int[1]~1 $end
$var wire 1 I" CLOCK_0|todig1|Mod1|auto_generated|divider|divider|add_sub_4_result_int[2]~3 $end
$var wire 1 J" CLOCK_0|todig1|Mod1|auto_generated|divider|divider|add_sub_4_result_int[3]~5 $end
$var wire 1 K" CLOCK_0|todig1|Mod1|auto_generated|divider|divider|add_sub_4_result_int[4]~7 $end
$var wire 1 L" CLOCK_0|todig1|Mod1|auto_generated|divider|divider|add_sub_4_result_int[5]~8_combout $end
$var wire 1 M" CLOCK_0|todig1|Mod1|auto_generated|divider|divider|StageOut[26]~37_combout $end
$var wire 1 N" CLOCK_0|todig1|Mod1|auto_generated|divider|divider|add_sub_4_result_int[2]~2_combout $end
$var wire 1 O" CLOCK_0|todig1|Mod1|auto_generated|divider|divider|StageOut[26]~25_combout $end
$var wire 1 P" CLOCK_0|todig1|Mod1|auto_generated|divider|divider|StageOut[25]~38_combout $end
$var wire 1 Q" CLOCK_0|todig1|Mod1|auto_generated|divider|divider|add_sub_4_result_int[1]~0_combout $end
$var wire 1 R" CLOCK_0|todig1|Mod1|auto_generated|divider|divider|StageOut[25]~26_combout $end
$var wire 1 S" CLOCK_0|todig1|Mod1|auto_generated|divider|divider|StageOut[24]~39_combout $end
$var wire 1 T" CLOCK_0|todig1|Mod1|auto_generated|divider|divider|StageOut[24]~40_combout $end
$var wire 1 U" CLOCK_0|todig1|Mod1|auto_generated|divider|divider|add_sub_5_result_int[1]~1 $end
$var wire 1 V" CLOCK_0|todig1|Mod1|auto_generated|divider|divider|add_sub_5_result_int[2]~3 $end
$var wire 1 W" CLOCK_0|todig1|Mod1|auto_generated|divider|divider|add_sub_5_result_int[3]~4_combout $end
$var wire 1 X" CLOCK_0|todig1|Mod1|auto_generated|divider|divider|StageOut[28]~41_combout $end
$var wire 1 Y" CLOCK_0|todig1|Mod1|auto_generated|divider|divider|add_sub_4_result_int[4]~6_combout $end
$var wire 1 Z" CLOCK_0|todig1|Mod1|auto_generated|divider|divider|StageOut[28]~27_combout $end
$var wire 1 [" CLOCK_0|todig1|Mod1|auto_generated|divider|divider|StageOut[27]~42_combout $end
$var wire 1 \" CLOCK_0|todig1|Mod1|auto_generated|divider|divider|add_sub_4_result_int[3]~4_combout $end
$var wire 1 ]" CLOCK_0|todig1|Mod1|auto_generated|divider|divider|StageOut[27]~28_combout $end
$var wire 1 ^" CLOCK_0|todig1|Mod1|auto_generated|divider|divider|add_sub_5_result_int[3]~5 $end
$var wire 1 _" CLOCK_0|todig1|Mod1|auto_generated|divider|divider|add_sub_5_result_int[4]~7_cout $end
$var wire 1 `" CLOCK_0|todig1|Mod1|auto_generated|divider|divider|add_sub_5_result_int[5]~9_cout $end
$var wire 1 a" CLOCK_0|todig1|Mod1|auto_generated|divider|divider|add_sub_5_result_int[6]~10_combout $end
$var wire 1 b" CLOCK_0|todig1|Mod1|auto_generated|divider|divider|StageOut[33]~29_combout $end
$var wire 1 c" CLOCK_0|todig1|Mod1|auto_generated|divider|divider|add_sub_5_result_int[1]~0_combout $end
$var wire 1 d" CLOCK_0|todig1|Mod1|auto_generated|divider|divider|StageOut[31]~30_combout $end
$var wire 1 e" CLOCK_0|todig1|Mod1|auto_generated|divider|divider|add_sub_5_result_int[2]~2_combout $end
$var wire 1 f" CLOCK_0|todig1|Mod1|auto_generated|divider|divider|StageOut[32]~31_combout $end
$var wire 1 g" SEVEN_SEG_3|LED[1]~0_combout $end
$var wire 1 h" SEVEN_SEG_3|LED[2]~1_combout $end
$var wire 1 i" SEVEN_SEG_3|LED[3]~2_combout $end
$var wire 1 j" SEVEN_SEG_3|LED[4]~3_combout $end
$var wire 1 k" SEVEN_SEG_3|LED[5]~4_combout $end
$var wire 1 l" SEVEN_SEG_3|LED[6]~5_combout $end
$var wire 1 m" SEVEN_SEG_3|LED[7]~6_combout $end
$var wire 1 n" CLOCK_0|th1 [4] $end
$var wire 1 o" CLOCK_0|th1 [3] $end
$var wire 1 p" CLOCK_0|th1 [2] $end
$var wire 1 q" CLOCK_0|th1 [1] $end
$var wire 1 r" CLOCK_0|th1 [0] $end
$var wire 1 s" CLOCK_0|tm2 [5] $end
$var wire 1 t" CLOCK_0|tm2 [4] $end
$var wire 1 u" CLOCK_0|tm2 [3] $end
$var wire 1 v" CLOCK_0|tm2 [2] $end
$var wire 1 w" CLOCK_0|tm2 [1] $end
$var wire 1 x" CLOCK_0|tm2 [0] $end
$var wire 1 y" CLOCK_0|th2 [4] $end
$var wire 1 z" CLOCK_0|th2 [3] $end
$var wire 1 {" CLOCK_0|th2 [2] $end
$var wire 1 |" CLOCK_0|th2 [1] $end
$var wire 1 }" CLOCK_0|th2 [0] $end
$var wire 1 ~" CLOCK_0|tm1 [5] $end
$var wire 1 !# CLOCK_0|tm1 [4] $end
$var wire 1 "# CLOCK_0|tm1 [3] $end
$var wire 1 ## CLOCK_0|tm1 [2] $end
$var wire 1 $# CLOCK_0|tm1 [1] $end
$var wire 1 %# CLOCK_0|tm1 [0] $end
$upscope $end
$upscope $end
$enddefinitions $end
#0
$dumpvars
b0 !
0"
1#
b1 $
1,
1+
0*
0)
0(
0'
0&
0%
14
13
02
01
00
0/
0.
0-
1<
1;
0:
09
08
07
06
05
1D
1C
0B
0A
0@
0?
0>
0=
xE
0F
1G
xH
1I
1J
1K
0L
0M
0N
0O
1P
1Q
0R
0S
0T
0U
0V
0W
1X
1Y
0Z
0[
0\
0]
0^
0_
1`
1a
0b
0c
0d
0e
0f
0g
1h
1i
0j
0k
0l
0m
0n
0o
0p
0q
1r
1s
1t
0u
0v
1w
0x
0y
0z
0{
0|
0}
0~
0!!
0"!
0#!
0$!
0%!
0&!
0'!
0(!
0)!
0*!
0+!
0,!
0-!
0.!
0/!
00!
01!
12!
03!
14!
05!
06!
07!
08!
19!
0:!
0;!
1<!
0=!
0>!
0?!
0@!
1A!
0B!
1C!
1D!
0E!
0F!
1G!
1H!
0I!
1J!
0K!
1L!
0M!
1N!
0O!
0P!
1Q!
0R!
0S!
0T!
0U!
1V!
0W!
0X!
0Y!
0Z!
0[!
1\!
1]!
0^!
1_!
0`!
1a!
0b!
1c!
0d!
0e!
0f!
0g!
0h!
0i!
0j!
1k!
0l!
1m!
0n!
0o!
0p!
0q!
1r!
0s!
0t!
1u!
0v!
0w!
0x!
0y!
1z!
0{!
1|!
1}!
0~!
0!"
0""
0#"
1$"
0%"
0&"
1'"
0("
0)"
0*"
0+"
1,"
0-"
1."
1/"
10"
01"
02"
03"
04"
05"
06"
07"
08"
19"
0:"
1;"
0<"
1="
0>"
0?"
0@"
0A"
1B"
0C"
0D"
0E"
0F"
0G"
0H"
1I"
0J"
1K"
1L"
0M"
1N"
0O"
0P"
1Q"
0R"
0S"
0T"
0U"
1V"
0W"
0X"
1Y"
0Z"
0["
0\"
0]"
0^"
1_"
0`"
1a"
0b"
1c"
0d"
1e"
0f"
1g"
0h"
0i"
0j"
0k"
0l"
0m"
0r"
0q"
0p"
0o"
0n"
0x"
0w"
0v"
0u"
0t"
0s"
0}"
0|"
0{"
0z"
0y"
0%#
0$#
0##
0"#
0!#
0~"
$end
#5000
1"
1q
0E
#10000
0#
0"
0t
0q
1E
#15000
1"
1q
0E
1%#
0w
1x
1m"
1j"
1i"
1h"
1o
1l
1k
1j
1=
1@
1A
1B
#20000
0"
0q
1E
#25000
1"
1q
0E
1$#
0%#
1S"
1)"
1y
0x
1w
1U"
0c"
1+"
1d"
1x
0m"
0j"
0i"
0h"
0V"
0e"
0,"
0o
0l
0k
0j
0=
0@
0A
0B
1k"
1h"
0g"
1W"
1m
1j
0i
1?
1B
0C
#30000
0"
0q
1E
#35000
1"
1q
0E
1%#
1z
0w
1{
0x
0k"
1i"
0m
1k
0?
1A
#40000
0"
0q
1E
#45000
1"
1q
0E
1##
0$#
0%#
1P"
1F"
1&"
1w!
1|
0S"
0)"
0y
1x
0z
1w
1f"
1e"
1H"
0Q"
1y!
0'"
0U"
1c"
0+"
0d"
0x
1k"
0i"
0I"
0N"
0z!
0$"
0e"
1m
0k
1?
0A
1m"
0k"
1j"
1i"
0h"
1\"
1!"
1o
0m
1l
1k
0j
1=
0?
1@
1A
0B
#50000
0"
0q
1E
#55000
1"
1q
0E
1%#
0w
1x
0m"
1l"
0j"
0o
1n
0l
0=
1>
0@
#60000
0"
0q
1E
#65000
1"
1q
0E
1$#
0%#
1S"
1)"
1y
0x
1w
1U"
0c"
1+"
1d"
1x
1m"
0l"
1j"
1e"
1o
0n
1l
1=
0>
1@
0m"
1l"
0j"
0i"
0o
1n
0l
0k
0=
1>
0@
0A
#70000
0"
0q
1E
#75000
1"
1q
0E
1%#
1z
0w
1}
0{
0x
0l"
1j"
1i"
1h"
1g"
0n
1l
1k
1j
1i
0>
1@
1A
1B
1C
#80000
0"
0q
1E
#85000
1"
1q
0E
1"#
0##
0$#
0%#
1D"
1t!
1~
0P"
0F"
0&"
0w!
0|
0S"
0)"
0y
1x
0z
1w
1M"
1N"
1#"
1$"
1:"
09"
1j!
0u!
0f"
0e"
0H"
1Q"
0y!
1'"
0U"
1c"
0+"
0d"
0x
1l"
0j"
0i"
0h"
0g"
1b"
1^"
0W"
1-"
0;"
0B"
0k!
0r!
0N"
0$"
1V"
1e"
1,"
1n
0l
0k
0j
0i
1>
0@
0A
0B
0C
0l"
1g"
0_"
0."
1?"
1o!
0^"
1W"
0-"
0n
1i
0>
1C
0g"
1`"
0/"
1_"
1."
0i
0C
0a"
0`"
1/"
18"
14"
11"
1f"
1d"
1a"
1g
1d
1b
15
18
1:
08"
04"
01"
0f"
0d"
0g
0d
0b
05
08
0:
1m"
1l"
1k"
1j"
1i"
1h"
1g"
1o
1n
1m
1l
1k
1j
1i
1=
1>
1?
1@
1A
1B
1C
0m"
0l"
0k"
0j"
0i"
0h"
0g"
0o
0n
0m
0l
0k
0j
0i
0=
0>
0?
0@
0A
0B
0C
#90000
0"
0q
1E
#95000
1"
1q
0E
1%#
0w
1x
1i"
1k
1A
#100000
0"
0q
1E
#105000
1"
1q
0E
1$#
0%#
1S"
1)"
1y
0x
1w
1U"
0c"
1+"
1d"
12"
1x
0i"
0V"
0e"
0,"
0k
0A
1m"
1l"
1k"
1j"
1i"
1h"
1g"
13"
1^"
0W"
1-"
1o
1n
1m
1l
1k
1j
1i
1c
1=
1>
1?
1@
1A
1B
1C
19
0_"
0."
1`"
0/"
0a"
18"
14"
11"
0d"
0b"
1g
1d
1b
15
18
1:
0m"
0l"
0k"
0j"
0i"
0h"
0o
0n
0m
0l
0k
0j
0=
0>
0?
0@
0A
0B
#110000
0"
0q
1E
#115000
1"
1q
0E
1%#
1z
0w
1{
0x
1m"
1j"
1i"
1h"
1o
1l
1k
1j
1=
1@
1A
1B
#120000
0"
0q
1E
#125000
1"
1q
0E
1##
0$#
0%#
1P"
1F"
1&"
1w!
1|
0S"
0)"
0y
1x
0z
1w
1e"
1H"
0Q"
1y!
0'"
0U"
1c"
0+"
0x
0m"
0j"
0i"
0h"
1f"
1N"
1$"
0e"
1d"
0o
0l
0k
0j
0=
0@
0A
0B
0f"
1l"
0g"
1n
0i
1>
0C
0l"
1k"
1h"
0n
1m
1j
0>
1?
1B
#130000
0"
0q
1E
#135000
1"
1q
0E
1%#
0w
1x
0k"
1i"
0m
1k
0?
1A
#140000
0"
0q
1E
#145000
1"
1q
0E
1$#
0%#
1S"
1)"
1y
0x
1w
1U"
0c"
1+"
1x
1k"
0i"
1e"
0d"
1m
0k
1?
0A
1f"
0k"
0h"
1g"
0m
0j
1i
0?
0B
1C
1m"
1j"
1i"
0g"
1o
1l
1k
0i
1=
1@
1A
0C
#150000
0"
0q
1E
#155000
1"
1q
0E
1%#
1z
0w
0}
0{
1!!
0x
0m"
1l"
0j"
1"!
0o
1n
0l
0=
1>
0@
#160000
0"
0q
1E
