simulation/qsim/main.msim.vcd
$comment
	File created using the following command:
		vcd file main.msim.vcd -direction
$end
$date
	Thu Dec 29 02:21:00 2022
$end
$version
	ModelSim Version 10.1d
$end
$timescale
	1ps
$end
$scope module main_vlg_vec_tst $end
$var reg 3 ! BUT [2:0] $end
$var reg 1 " clk $end
$var reg 1 # reset $end
$var reg 4 $ SW [3:0] $end
$var wire 1 % dp [3] $end
$var wire 1 & dp [2] $end
$var wire 1 ' dp [1] $end
$var wire 1 ( dp [0] $end
$var wire 1 ) LED0 [6] $end
$var wire 1 * LED0 [5] $end
$var wire 1 + LED0 [4] $end
$var wire 1 , LED0 [3] $end
$var wire 1 - LED0 [2] $end
$var wire 1 . LED0 [1] $end
$var wire 1 / LED0 [0] $end
$var wire 1 0 LED1 [6] $end
$var wire 1 1 LED1 [5] $end
$var wire 1 2 LED1 [4] $end
$var wire 1 3 LED1 [3] $end
$var wire 1 4 LED1 [2] $end
$var wire 1 5 LED1 [1] $end
$var wire 1 6 LED1 [0] $end
$var wire 1 7 LED2 [6] $end
$var wire 1 8 LED2 [5] $end
$var wire 1 9 LED2 [4] $end
$var wire 1 : LED2 [3] $end
$var wire 1 ; LED2 [2] $end
$var wire 1 < LED2 [1] $end
$var wire 1 = LED2 [0] $end
$var wire 1 > LED3 [6] $end
$var wire 1 ? LED3 [5] $end
$var wire 1 @ LED3 [4] $end
$var wire 1 A LED3 [3] $end
$var wire 1 B LED3 [2] $end
$var wire 1 C LED3 [1] $end
$var wire 1 D LED3 [0] $end
$var wire 1 E sampler $end
$scope module i1 $end
$var wire 1 F gnd $end
$var wire 1 G vcc $end
$var wire 1 H unknown $end
$var tri1 1 I devclrn $end
$var tri1 1 J devpor $end
$var tri1 1 K devoe $end
$var wire 1 L SW[1]~input_o $end
$var wire 1 M SW[2]~input_o $end
$var wire 1 N SW[3]~input_o $end
$var wire 1 O dp[0]~output_o $end
$var wire 1 P dp[1]~output_o $end
$var wire 1 Q dp[2]~output_o $end
$var wire 1 R dp[3]~output_o $end
$var wire 1 S LED0[0]~output_o $end
$var wire 1 T LED0[1]~output_o $end
$var wire 1 U LED0[2]~output_o $end
$var wire 1 V LED0[3]~output_o $end
$var wire 1 W LED0[4]~output_o $end
$var wire 1 X LED0[5]~output_o $end
$var wire 1 Y LED0[6]~output_o $end
$var wire 1 Z LED1[0]~output_o $end
$var wire 1 [ LED1[1]~output_o $end
$var wire 1 \ LED1[2]~output_o $end
$var wire 1 ] LED1[3]~output_o $end
$var wire 1 ^ LED1[4]~output_o $end
$var wire 1 _ LED1[5]~output_o $end
$var wire 1 ` LED1[6]~output_o $end
$var wire 1 a LED2[0]~output_o $end
$var wire 1 b LED2[1]~output_o $end
$var wire 1 c LED2[2]~output_o $end
$var wire 1 d LED2[3]~output_o $end
$var wire 1 e LED2[4]~output_o $end
$var wire 1 f LED2[5]~output_o $end
$var wire 1 g LED2[6]~output_o $end
$var wire 1 h LED3[0]~output_o $end
$var wire 1 i LED3[1]~output_o $end
$var wire 1 j LED3[2]~output_o $end
$var wire 1 k LED3[3]~output_o $end
$var wire 1 l LED3[4]~output_o $end
$var wire 1 m LED3[5]~output_o $end
$var wire 1 n LED3[6]~output_o $end
$var wire 1 o BUT[2]~input_o $end
$var wire 1 p CLOCK_0|ff~0_combout $end
$var wire 1 q reset~input_o $end
$var wire 1 r CLOCK_0|ff~q $end
$var wire 1 s clk~input_o $end
$var wire 1 t CLOCK_0|secc~0_combout $end
$var wire 1 u CLOCK_0|secc~q $end
$var wire 1 v BUT[0]~input_o $end
$var wire 1 w BUT[1]~input_o $end
$var wire 1 x SW[0]~input_o $end
$var wire 1 y CLOCK_0|Equal0~0_combout $end
$var wire 1 z CLOCK_0|Equal0~1_combout $end
$var wire 1 { CLOCK_0|m[0]~5_combout $end
$var wire 1 | CLOCK_0|Add1~5_combout $end
$var wire 1 } CLOCK_0|m[1]~4_combout $end
$var wire 1 ~ CLOCK_0|Equal0~2_combout $end
$var wire 1 !! CLOCK_0|tm1~3_combout $end
$var wire 1 "! CLOCK_0|m[2]~3_combout $end
$var wire 1 #! CLOCK_0|tm1~2_combout $end
$var wire 1 $! CLOCK_0|m[3]~2_combout $end
$var wire 1 %! CLOCK_0|Add1~4_combout $end
$var wire 1 &! CLOCK_0|tm1~1_combout $end
$var wire 1 '! CLOCK_0|m[4]~1_combout $end
$var wire 1 (! CLOCK_0|tm1~0_combout $end
$var wire 1 )! CLOCK_0|m[5]~0_combout $end
$var wire 1 *! CLOCK_0|Equal0~3_combout $end
$var wire 1 +! CLOCK_0|th1~5_combout $end
$var wire 1 ,! CLOCK_0|h[0]~7_combout $end
$var wire 1 -! CLOCK_0|th1~8_combout $end
$var wire 1 .! CLOCK_0|Add0~3_combout $end
$var wire 1 /! CLOCK_0|th1[1]~0_combout $end
$var wire 1 0! CLOCK_0|th1~6_combout $end
$var wire 1 1! CLOCK_0|h[3]~0_combout $end
$var wire 1 2! CLOCK_0|Add0~2_combout $end
$var wire 1 3! CLOCK_0|h[2]~6_combout $end
$var wire 1 4! CLOCK_0|Equal1~0_combout $end
$var wire 1 5! CLOCK_0|th1~7_combout $end
$var wire 1 6! CLOCK_0|h[3]~4_combout $end
$var wire 1 7! CLOCK_0|h[3]~5_combout $end
$var wire 1 8! CLOCK_0|th1~3_combout $end
$var wire 1 9! CLOCK_0|th1~4_combout $end
$var wire 1 :! CLOCK_0|h[4]~1_combout $end
$var wire 1 ;! CLOCK_0|h[4]~2_combout $end
$var wire 1 <! CLOCK_0|h[4]~3_combout $end
$var wire 1 =! CLOCK_0|todig1|Div0|auto_generated|divider|divider|add_sub_3_result_int[1]~1 $end
$var wire 1 >! CLOCK_0|todig1|Div0|auto_generated|divider|divider|add_sub_3_result_int[2]~3 $end
$var wire 1 ?! CLOCK_0|todig1|Div0|auto_generated|divider|divider|add_sub_3_result_int[3]~5 $end
$var wire 1 @! CLOCK_0|todig1|Div0|auto_generated|divider|divider|add_sub_3_result_int[4]~6_combout $end
$var wire 1 A! CLOCK_0|todig1|Div0|auto_generated|divider|divider|StageOut[18]~0_combout $end
$var wire 1 B! CLOCK_0|todig1|Div0|auto_generated|divider|divider|add_sub_3_result_int[3]~4_combout $end
$var wire 1 C! CLOCK_0|todig1|Div0|auto_generated|divider|divider|StageOut[18]~1_combout $end
$var wire 1 D! CLOCK_0|todig1|Div0|auto_generated|divider|divider|StageOut[17]~2_combout $end
$var wire 1 E! CLOCK_0|todig1|Div0|auto_generated|divider|divider|add_sub_3_result_int[2]~2_combout $end
$var wire 1 F! CLOCK_0|todig1|Div0|auto_generated|divider|divider|StageOut[17]~3_combout $end
$var wire 1 G! CLOCK_0|todig1|Div0|auto_generated|divider|divider|StageOut[16]~4_combout $end
$var wire 1 H! CLOCK_0|todig1|Div0|auto_generated|divider|divider|add_sub_3_result_int[1]~0_combout $end
$var wire 1 I! CLOCK_0|todig1|Div0|auto_generated|divider|divider|StageOut[16]~5_combout $end
$var wire 1 J! CLOCK_0|todig1|Div0|auto_generated|divider|divider|StageOut[15]~6_combout $end
$var wire 1 K! CLOCK_0|todig1|Div0|auto_generated|divider|divider|StageOut[15]~7_combout $end
$var wire 1 L! CLOCK_0|todig1|Div0|auto_generated|divider|divider|add_sub_4_result_int[1]~1_cout $end
$var wire 1 M! CLOCK_0|todig1|Div0|auto_generated|divider|divider|add_sub_4_result_int[2]~3_cout $end
$var wire 1 N! CLOCK_0|todig1|Div0|auto_generated|divider|divider|add_sub_4_result_int[3]~5_cout $end
$var wire 1 O! CLOCK_0|todig1|Div0|auto_generated|divider|divider|add_sub_4_result_int[4]~7_cout $end
$var wire 1 P! CLOCK_0|todig1|Div0|auto_generated|divider|divider|add_sub_4_result_int[5]~8_combout $end
$var wire 1 Q! SEVEN_SEG_0|Equal9~0_combout $end
$var wire 1 R! SEVEN_SEG_0|LED[2]~0_combout $end
$var wire 1 S! SEVEN_SEG_0|LED[6]~1_combout $end
$var wire 1 T! SEVEN_SEG_0|LED[4]~2_combout $end
$var wire 1 U! CLOCK_0|todig1|Mod0|auto_generated|divider|divider|add_sub_3_result_int[1]~1 $end
$var wire 1 V! CLOCK_0|todig1|Mod0|auto_generated|divider|divider|add_sub_3_result_int[2]~3 $end
$var wire 1 W! CLOCK_0|todig1|Mod0|auto_generated|divider|divider|add_sub_3_result_int[3]~5 $end
$var wire 1 X! CLOCK_0|todig1|Mod0|auto_generated|divider|divider|add_sub_3_result_int[4]~6_combout $end
$var wire 1 Y! CLOCK_0|todig1|Mod0|auto_generated|divider|divider|StageOut[17]~0_combout $end
$var wire 1 Z! CLOCK_0|todig1|Mod0|auto_generated|divider|divider|add_sub_3_result_int[2]~2_combout $end
$var wire 1 [! CLOCK_0|todig1|Mod0|auto_generated|divider|divider|StageOut[17]~1_combout $end
$var wire 1 \! CLOCK_0|todig1|Mod0|auto_generated|divider|divider|StageOut[16]~2_combout $end
$var wire 1 ]! CLOCK_0|todig1|Mod0|auto_generated|divider|divider|add_sub_3_result_int[1]~0_combout $end
$var wire 1 ^! CLOCK_0|todig1|Mod0|auto_generated|divider|divider|StageOut[16]~3_combout $end
$var wire 1 _! CLOCK_0|todig1|Mod0|auto_generated|divider|divider|StageOut[15]~4_combout $end
$var wire 1 `! CLOCK_0|todig1|Mod0|auto_generated|divider|divider|StageOut[15]~5_combout $end
$var wire 1 a! CLOCK_0|todig1|Mod0|auto_generated|divider|divider|add_sub_4_result_int[1]~1 $end
$var wire 1 b! CLOCK_0|todig1|Mod0|auto_generated|divider|divider|add_sub_4_result_int[2]~3 $end
$var wire 1 c! CLOCK_0|todig1|Mod0|auto_generated|divider|divider|add_sub_4_result_int[3]~4_combout $end
$var wire 1 d! CLOCK_0|todig1|Mod0|auto_generated|divider|divider|StageOut[18]~6_combout $end
$var wire 1 e! CLOCK_0|todig1|Mod0|auto_generated|divider|divider|add_sub_3_result_int[3]~4_combout $end
$var wire 1 f! CLOCK_0|todig1|Mod0|auto_generated|divider|divider|StageOut[18]~7_combout $end
$var wire 1 g! CLOCK_0|todig1|Mod0|auto_generated|divider|divider|add_sub_4_result_int[3]~5 $end
$var wire 1 h! CLOCK_0|todig1|Mod0|auto_generated|divider|divider|add_sub_4_result_int[4]~7_cout $end
$var wire 1 i! CLOCK_0|todig1|Mod0|auto_generated|divider|divider|add_sub_4_result_int[5]~8_combout $end
$var wire 1 j! CLOCK_0|todig1|Mod0|auto_generated|divider|divider|StageOut[23]~8_combout $end
$var wire 1 k! CLOCK_0|todig1|Mod0|auto_generated|divider|divider|add_sub_4_result_int[1]~0_combout $end
$var wire 1 l! CLOCK_0|todig1|Mod0|auto_generated|divider|divider|StageOut[21]~9_combout $end
$var wire 1 m! CLOCK_0|todig1|Mod0|auto_generated|divider|divider|add_sub_4_result_int[2]~2_combout $end
$var wire 1 n! CLOCK_0|todig1|Mod0|auto_generated|divider|divider|StageOut[22]~10_combout $end
$var wire 1 o! SEVEN_SEG_1|LED[0]~0_combout $end
$var wire 1 p! SEVEN_SEG_1|LED[1]~1_combout $end
$var wire 1 q! SEVEN_SEG_1|LED[2]~2_combout $end
$var wire 1 r! SEVEN_SEG_1|LED[3]~3_combout $end
$var wire 1 s! SEVEN_SEG_1|LED[4]~4_combout $end
$var wire 1 t! SEVEN_SEG_1|LED[5]~5_combout $end
$var wire 1 u! SEVEN_SEG_1|LED[6]~6_combout $end
$var wire 1 v! CLOCK_0|todig1|Div1|auto_generated|divider|divider|add_sub_3_result_int[1]~1 $end
$var wire 1 w! CLOCK_0|todig1|Div1|auto_generated|divider|divider|add_sub_3_result_int[2]~3 $end
$var wire 1 x! CLOCK_0|todig1|Div1|auto_generated|divider|divider|add_sub_3_result_int[3]~5 $end
$var wire 1 y! CLOCK_0|todig1|Div1|auto_generated|divider|divider|add_sub_3_result_int[4]~6_combout $end
$var wire 1 z! CLOCK_0|todig1|Div1|auto_generated|divider|divider|StageOut[18]~26_combout $end
$var wire 1 {! CLOCK_0|todig1|Div1|auto_generated|divider|divider|add_sub_3_result_int[3]~4_combout $end
$var wire 1 |! CLOCK_0|todig1|Div1|auto_generated|divider|divider|StageOut[18]~20_combout $end
$var wire 1 }! CLOCK_0|todig1|Div1|auto_generated|divider|divider|StageOut[17]~27_combout $end
$var wire 1 ~! CLOCK_0|todig1|Div1|auto_generated|divider|divider|add_sub_3_result_int[2]~2_combout $end
$var wire 1 !" CLOCK_0|todig1|Div1|auto_generated|divider|divider|StageOut[17]~21_combout $end
$var wire 1 "" CLOCK_0|todig1|Div1|auto_generated|divider|divider|StageOut[16]~28_combout $end
$var wire 1 #" CLOCK_0|todig1|Div1|auto_generated|divider|divider|add_sub_3_result_int[1]~0_combout $end
$var wire 1 $" CLOCK_0|todig1|Div1|auto_generated|divider|divider|StageOut[16]~22_combout $end
$var wire 1 %" CLOCK_0|todig1|Div1|auto_generated|divider|divider|StageOut[15]~29_combout $end
$var wire 1 &" CLOCK_0|todig1|Div1|auto_generated|divider|divider|StageOut[15]~30_combout $end
$var wire 1 '" CLOCK_0|todig1|Div1|auto_generated|divider|divider|add_sub_4_result_int[1]~1 $end
$var wire 1 (" CLOCK_0|todig1|Div1|auto_generated|divider|divider|add_sub_4_result_int[2]~3 $end
$var wire 1 )" CLOCK_0|todig1|Div1|auto_generated|divider|divider|add_sub_4_result_int[3]~5 $end
$var wire 1 *" CLOCK_0|todig1|Div1|auto_generated|divider|divider|add_sub_4_result_int[4]~7_cout $end
$var wire 1 +" CLOCK_0|todig1|Div1|auto_generated|divider|divider|add_sub_4_result_int[5]~8_combout $end
$var wire 1 ," CLOCK_0|todig1|Div1|auto_generated|divider|divider|StageOut[23]~31_combout $end
$var wire 1 -" CLOCK_0|todig1|Div1|auto_generated|divider|divider|add_sub_4_result_int[3]~4_combout $end
$var wire 1 ." CLOCK_0|todig1|Div1|auto_generated|divider|divider|StageOut[23]~23_combout $end
$var wire 1 /" CLOCK_0|todig1|Div1|auto_generated|divider|divider|StageOut[22]~32_combout $end
$var wire 1 0" CLOCK_0|todig1|Div1|auto_generated|divider|divider|add_sub_4_result_int[2]~2_combout $end
$var wire 1 1" CLOCK_0|todig1|Div1|auto_generated|divider|divider|StageOut[22]~24_combout $end
$var wire 1 2" CLOCK_0|todig1|Div1|auto_generated|divider|divider|StageOut[21]~33_combout $end
$var wire 1 3" CLOCK_0|todig1|Div1|auto_generated|divider|divider|add_sub_4_result_int[1]~0_combout $end
$var wire 1 4" CLOCK_0|todig1|Div1|auto_generated|divider|divider|StageOut[21]~25_combout $end
$var wire 1 5" CLOCK_0|todig1|Div1|auto_generated|divider|divider|StageOut[20]~34_combout $end
$var wire 1 6" CLOCK_0|todig1|Div1|auto_generated|divider|divider|StageOut[20]~35_combout $end
$var wire 1 7" CLOCK_0|todig1|Div1|auto_generated|divider|divider|add_sub_5_result_int[1]~1_cout $end
$var wire 1 8" CLOCK_0|todig1|Div1|auto_generated|divider|divider|add_sub_5_result_int[2]~3_cout $end
$var wire 1 9" CLOCK_0|todig1|Div1|auto_generated|divider|divider|add_sub_5_result_int[3]~5_cout $end
$var wire 1 :" CLOCK_0|todig1|Div1|auto_generated|divider|divider|add_sub_5_result_int[4]~7_cout $end
$var wire 1 ;" CLOCK_0|todig1|Div1|auto_generated|divider|divider|add_sub_5_result_int[5]~8_combout $end
$var wire 1 <" SEVEN_SEG_2|LED[0]~2_combout $end
$var wire 1 =" SEVEN_SEG_2|LED[1]~3_combout $end
$var wire 1 >" SEVEN_SEG_2|LED[2]~4_combout $end
$var wire 1 ?" SEVEN_SEG_2|LED[2]~5_combout $end
$var wire 1 @" SEVEN_SEG_2|LED[3]~6_combout $end
$var wire 1 A" SEVEN_SEG_2|LED[4]~7_combout $end
$var wire 1 B" SEVEN_SEG_2|LED[5]~8_combout $end
$var wire 1 C" SEVEN_SEG_2|LED[5]~10_combout $end
$var wire 1 D" SEVEN_SEG_2|LED[6]~9_combout $end
$var wire 1 E" CLOCK_0|todig1|Mod1|auto_generated|divider|divider|add_sub_3_result_int[1]~0_combout $end
$var wire 1 F" CLOCK_0|todig1|Mod1|auto_generated|divider|divider|add_sub_3_result_int[1]~1 $end
$var wire 1 G" CLOCK_0|todig1|Mod1|auto_generated|divider|divider|add_sub_3_result_int[2]~3 $end
$var wire 1 H" CLOCK_0|todig1|Mod1|auto_generated|divider|divider|add_sub_3_result_int[3]~5 $end
$var wire 1 I" CLOCK_0|todig1|Mod1|auto_generated|divider|divider|add_sub_3_result_int[4]~6_combout $end
$var wire 1 J" CLOCK_0|todig1|Mod1|auto_generated|divider|divider|StageOut[21]~32_combout $end
$var wire 1 K" CLOCK_0|todig1|Mod1|auto_generated|divider|divider|add_sub_3_result_int[3]~4_combout $end
$var wire 1 L" CLOCK_0|todig1|Mod1|auto_generated|divider|divider|StageOut[21]~22_combout $end
$var wire 1 M" CLOCK_0|todig1|Mod1|auto_generated|divider|divider|StageOut[20]~33_combout $end
$var wire 1 N" CLOCK_0|todig1|Mod1|auto_generated|divider|divider|add_sub_3_result_int[2]~2_combout $end
$var wire 1 O" CLOCK_0|todig1|Mod1|auto_generated|divider|divider|StageOut[20]~23_combout $end
$var wire 1 P" CLOCK_0|todig1|Mod1|auto_generated|divider|divider|StageOut[19]~34_combout $end
$var wire 1 Q" CLOCK_0|todig1|Mod1|auto_generated|divider|divider|StageOut[19]~24_combout $end
$var wire 1 R" CLOCK_0|todig1|Mod1|auto_generated|divider|divider|StageOut[18]~35_combout $end
$var wire 1 S" CLOCK_0|todig1|Mod1|auto_generated|divider|divider|StageOut[18]~36_combout $end
$var wire 1 T" CLOCK_0|todig1|Mod1|auto_generated|divider|divider|add_sub_4_result_int[1]~1 $end
$var wire 1 U" CLOCK_0|todig1|Mod1|auto_generated|divider|divider|add_sub_4_result_int[2]~3 $end
$var wire 1 V" CLOCK_0|todig1|Mod1|auto_generated|divider|divider|add_sub_4_result_int[3]~5 $end
$var wire 1 W" CLOCK_0|todig1|Mod1|auto_generated|divider|divider|add_sub_4_result_int[4]~7 $end
$var wire 1 X" CLOCK_0|todig1|Mod1|auto_generated|divider|divider|add_sub_4_result_int[5]~8_combout $end
$var wire 1 Y" CLOCK_0|todig1|Mod1|auto_generated|divider|divider|StageOut[26]~37_combout $end
$var wire 1 Z" CLOCK_0|todig1|Mod1|auto_generated|divider|divider|add_sub_4_result_int[2]~2_combout $end
$var wire 1 [" CLOCK_0|todig1|Mod1|auto_generated|divider|divider|StageOut[26]~25_combout $end
$var wire 1 \" CLOCK_0|todig1|Mod1|auto_generated|divider|divider|StageOut[25]~38_combout $end
$var wire 1 ]" CLOCK_0|todig1|Mod1|auto_generated|divider|divider|add_sub_4_result_int[1]~0_combout $end
$var wire 1 ^" CLOCK_0|todig1|Mod1|auto_generated|divider|divider|StageOut[25]~26_combout $end
$var wire 1 _" CLOCK_0|todig1|Mod1|auto_generated|divider|divider|StageOut[24]~39_combout $end
$var wire 1 `" CLOCK_0|todig1|Mod1|auto_generated|divider|divider|StageOut[24]~40_combout $end
$var wire 1 a" CLOCK_0|todig1|Mod1|auto_generated|divider|divider|add_sub_5_result_int[1]~1 $end
$var wire 1 b" CLOCK_0|todig1|Mod1|auto_generated|divider|divider|add_sub_5_result_int[2]~3 $end
$var wire 1 c" CLOCK_0|todig1|Mod1|auto_generated|divider|divider|add_sub_5_result_int[3]~4_combout $end
$var wire 1 d" CLOCK_0|todig1|Mod1|auto_generated|divider|divider|StageOut[28]~41_combout $end
$var wire 1 e" CLOCK_0|todig1|Mod1|auto_generated|divider|divider|add_sub_4_result_int[4]~6_combout $end
$var wire 1 f" CLOCK_0|todig1|Mod1|auto_generated|divider|divider|StageOut[28]~27_combout $end
$var wire 1 g" CLOCK_0|todig1|Mod1|auto_generated|divider|divider|StageOut[27]~42_combout $end
$var wire 1 h" CLOCK_0|todig1|Mod1|auto_generated|divider|divider|add_sub_4_result_int[3]~4_combout $end
$var wire 1 i" CLOCK_0|todig1|Mod1|auto_generated|divider|divider|StageOut[27]~28_combout $end
$var wire 1 j" CLOCK_0|todig1|Mod1|auto_generated|divider|divider|add_sub_5_result_int[3]~5 $end
$var wire 1 k" CLOCK_0|todig1|Mod1|auto_generated|divider|divider|add_sub_5_result_int[4]~7_cout $end
$var wire 1 l" CLOCK_0|todig1|Mod1|auto_generated|divider|divider|add_sub_5_result_int[5]~9_cout $end
$var wire 1 m" CLOCK_0|todig1|Mod1|auto_generated|divider|divider|add_sub_5_result_int[6]~10_combout $end
$var wire 1 n" CLOCK_0|todig1|Mod1|auto_generated|divider|divider|StageOut[33]~29_combout $end
$var wire 1 o" CLOCK_0|todig1|Mod1|auto_generated|divider|divider|add_sub_5_result_int[1]~0_combout $end
$var wire 1 p" CLOCK_0|todig1|Mod1|auto_generated|divider|divider|StageOut[31]~30_combout $end
$var wire 1 q" CLOCK_0|todig1|Mod1|auto_generated|divider|divider|add_sub_5_result_int[2]~2_combout $end
$var wire 1 r" CLOCK_0|todig1|Mod1|auto_generated|divider|divider|StageOut[32]~31_combout $end
$var wire 1 s" SEVEN_SEG_3|LED[0]~0_combout $end
$var wire 1 t" SEVEN_SEG_3|LED[1]~1_combout $end
$var wire 1 u" SEVEN_SEG_3|LED[2]~2_combout $end
$var wire 1 v" SEVEN_SEG_3|LED[3]~3_combout $end
$var wire 1 w" SEVEN_SEG_3|LED[4]~4_combout $end
$var wire 1 x" SEVEN_SEG_3|LED[5]~5_combout $end
$var wire 1 y" SEVEN_SEG_3|LED[6]~6_combout $end
$var wire 1 z" CLOCK_0|tm1 [5] $end
$var wire 1 {" CLOCK_0|tm1 [4] $end
$var wire 1 |" CLOCK_0|tm1 [3] $end
$var wire 1 }" CLOCK_0|tm1 [2] $end
$var wire 1 ~" CLOCK_0|tm1 [1] $end
$var wire 1 !# CLOCK_0|tm1 [0] $end
$var wire 1 "# CLOCK_0|th1 [4] $end
$var wire 1 ## CLOCK_0|th1 [3] $end
$var wire 1 $# CLOCK_0|th1 [2] $end
$var wire 1 %# CLOCK_0|th1 [1] $end
$var wire 1 &# CLOCK_0|th1 [0] $end
$var wire 1 '# CLOCK_0|th2 [4] $end
$var wire 1 (# CLOCK_0|th2 [3] $end
$var wire 1 )# CLOCK_0|th2 [2] $end
$var wire 1 *# CLOCK_0|th2 [1] $end
$var wire 1 +# CLOCK_0|th2 [0] $end
$var wire 1 ,# CLOCK_0|tm2 [5] $end
$var wire 1 -# CLOCK_0|tm2 [4] $end
$var wire 1 .# CLOCK_0|tm2 [3] $end
$var wire 1 /# CLOCK_0|tm2 [2] $end
$var wire 1 0# CLOCK_0|tm2 [1] $end
$var wire 1 1# CLOCK_0|tm2 [0] $end
$upscope $end
$upscope $end
$enddefinitions $end
#0
$dumpvars
b0 !
0"
1#
b0 $
0(
0'
0&
0%
1/
0.
0-
0,
0+
0*
0)
16
05
04
03
02
01
00
1=
0<
0;
0:
09
08
07
1D
0C
0B
0A
0@
0?
0>
xE
0F
1G
xH
1I
1J
1K
0L
0M
0N
0O
0P
0Q
0R
1S
0T
0U
0V
0W
0X
0Y
1Z
0[
0\
0]
0^
0_
0`
1a
0b
0c
0d
0e
0f
0g
1h
0i
0j
0k
0l
0m
0n
0o
1p
1q
0r
0s
1t
0u
0v
0w
0x
0y
0z
1{
0|
0}
0~
0!!
0"!
0#!
0$!
0%!
0&!
0'!
0(!
0)!
0*!
0+!
1,!
0-!
0.!
0/!
00!
11!
02!
03!
04!
05!
16!
07!
08!
09!
0:!
1;!
0<!
0=!
1>!
0?!
1@!
0A!
0B!
0C!
0D!
1E!
0F!
0G!
1H!
0I!
0J!
0K!
0L!
1M!
0N!
1O!
1P!
0Q!
0R!
1S!
1T!
0U!
1V!
0W!
1X!
0Y!
1Z!
0[!
0\!
1]!
0^!
0_!
0`!
0a!
1b!
0c!
0d!
0e!
0f!
0g!
1h!
1i!
0j!
1k!
0l!
1m!
0n!
1o!
0p!
0q!
0r!
0s!
0t!
0u!
0v!
1w!
0x!
1y!
0z!
0{!
0|!
0}!
1~!
0!"
0""
1#"
0$"
0%"
0&"
0'"
1("
0)"
1*"
1+"
0,"
0-"
0."
0/"
10"
01"
02"
13"
04"
05"
06"
07"
18"
09"
1:"
1;"
1<"
0="
0>"
0?"
0@"
0A"
0B"
0C"
0D"
1E"
0F"
1G"
0H"
1I"
0J"
0K"
0L"
0M"
1N"
0O"
0P"
0Q"
0R"
0S"
0T"
1U"
0V"
1W"
1X"
0Y"
1Z"
0["
0\"
1]"
0^"
0_"
0`"
0a"
1b"
0c"
0d"
1e"
0f"
0g"
0h"
0i"
0j"
1k"
0l"
1m"
0n"
1o"
0p"
1q"
0r"
1s"
0t"
0u"
0v"
0w"
0x"
0y"
0!#
0~"
0}"
0|"
0{"
0z"
0&#
0%#
0$#
0##
0"#
0+#
0*#
0)#
0(#
0'#
01#
00#
0/#
0.#
0-#
0,#
$end
#5000
1"
1s
0E
#10000
0#
0"
0q
0s
1E
#15000
1"
1s
0E
1!#
1u
0{
0t
1Q
1&
1|
1y"
1v"
1u"
1t"
1n
1k
1j
1i
1>
1A
1B
1C
#20000
0"
0s
1E
#25000
1"
1s
0E
0!#
1~"
0u
1{
1_"
15"
1}
0|
1t
0Q
0&
1|
1a"
0o"
17"
1p"
0y"
0v"
0u"
0t"
0b"
0q"
08"
0n
0k
0j
0i
0>
0A
0B
0C
1w"
1t"
0s"
1c"
1l
1i
0h
1@
1C
0D
#30000
0"
0s
1E
#35000
1"
1s
0E
1!#
1u
1~
0{
0t
1Q
1&
1!!
0|
0w"
1u"
0l
1j
0@
1B
#40000
0"
0s
1E
#45000
1"
1s
0E
1}"
0!#
0~"
0u
1\"
1R"
12"
1%"
1"!
0~
1{
0_"
05"
0}
1|
1t
0Q
0&
1r"
1q"
1T"
0]"
1'"
03"
0|
0a"
1o"
07"
0p"
1w"
0u"
0U"
0Z"
0("
00"
0q"
1l
0j
1@
0B
1y"
0w"
1v"
1u"
0t"
1h"
1-"
1n
0l
1k
1j
0i
1>
0@
1A
1B
0C
#50000
0"
0s
1E
#55000
1"
1s
0E
1!#
1u
0{
0t
1Q
1&
1|
0y"
1x"
0v"
0n
1m
0k
0>
1?
0A
#60000
0"
0s
1E
#65000
1"
1s
0E
0!#
1~"
0u
1{
1_"
15"
1}
0|
1t
0Q
0&
1|
1a"
0o"
17"
1p"
1y"
0x"
1v"
1q"
1n
0m
1k
1>
0?
1A
0y"
1x"
0v"
0u"
0n
1m
0k
0j
0>
1?
0A
0B
#70000
0"
0s
1E
#75000
1"
1s
0E
1!#
1u
1~
0{
0t
1Q
1&
1#!
0!!
0|
0x"
1v"
1u"
1t"
1s"
0m
1k
1j
1i
1h
0?
1A
1B
1C
1D
#80000
0"
0s
1E
#85000
1"
1s
0E
0}"
0!#
0~"
1|"
0u
0\"
0R"
02"
0%"
0"!
0~
1{
0_"
05"
0}
1|
1P"
1""
1$!
1t
0Q
0&
0r"
0q"
0T"
1]"
0'"
13"
0|
0a"
1o"
07"
0p"
1Y"
1Z"
1/"
10"
1F"
0E"
1v!
0#"
1x"
0v"
0u"
0t"
0s"
0Z"
00"
1b"
1q"
18"
1n"
1j"
0c"
19"
0G"
0N"
0w!
0~!
1m
0k
0j
0i
0h
1?
0A
0B
0C
0D
0x"
1s"
0j"
1c"
09"
0k"
0:"
1K"
1{!
0m
1h
0?
1D
0s"
1k"
1:"
1l"
0;"
0h
0D
0l"
1;"
0m"
1D"
1@"
1="
1m"
1r"
1p"
1g
1d
1b
17
1:
1<
0D"
0@"
0="
0r"
0p"
0g
0d
0b
07
0:
0<
1y"
1x"
1w"
1v"
1u"
1t"
1s"
1n
1m
1l
1k
1j
1i
1h
1>
1?
1@
1A
1B
1C
1D
0y"
0x"
0w"
0v"
0u"
0t"
0s"
0n
0m
0l
0k
0j
0i
0h
0>
0?
0@
0A
0B
0C
0D
#90000
0"
0s
1E
#95000
1"
1s
0E
1!#
1u
0{
0t
1Q
1&
1|
1u"
1j
1B
#100000
0"
0s
1E
#105000
1"
1s
0E
0!#
1~"
0u
1{
1_"
15"
1}
0|
1t
0Q
0&
1|
1a"
0o"
17"
1p"
1>"
0u"
0b"
0q"
08"
0j
0B
1y"
1x"
1w"
1v"
1u"
1t"
1s"
1?"
1j"
0c"
19"
1n
1m
1l
1k
1j
1i
1h
1c
1>
1?
1@
1A
1B
1C
1D
1;
0k"
0:"
1l"
0;"
0m"
1D"
1@"
1="
0p"
0n"
1g
1d
1b
17
1:
1<
0y"
0x"
0w"
0v"
0u"
0t"
0n
0m
0l
0k
0j
0i
0>
0?
0@
0A
0B
0C
#110000
0"
0s
1E
#115000
1"
1s
0E
1!#
1u
1~
0{
0t
1Q
1&
1!!
0|
1y"
1v"
1u"
1t"
1n
1k
1j
1i
1>
1A
1B
1C
#120000
0"
0s
1E
#125000
1"
1s
0E
1}"
0!#
0~"
0u
1\"
1R"
12"
1%"
1"!
0~
1{
0_"
05"
0}
1|
1t
0Q
0&
1q"
1T"
0]"
1'"
03"
0|
0a"
1o"
07"
0y"
0v"
0u"
0t"
1r"
1Z"
10"
0q"
1p"
0n
0k
0j
0i
0>
0A
0B
0C
0r"
1x"
0s"
1m
0h
1?
0D
0x"
1w"
1t"
0m
1l
1i
0?
1@
1C
#130000
0"
0s
1E
#135000
1"
1s
0E
1!#
1u
0{
0t
1Q
1&
1|
0w"
1u"
0l
1j
0@
1B
#140000
0"
0s
1E
#145000
1"
1s
0E
0!#
1~"
0u
1{
1_"
15"
1}
0|
1t
0Q
0&
1|
1a"
0o"
17"
1w"
0u"
1q"
0p"
1l
0j
1@
0B
1r"
0w"
0t"
1s"
0l
0i
1h
0@
0C
1D
1y"
1v"
1u"
0s"
1n
1k
1j
0h
1>
1A
1B
0D
